{
  "name": "lb-fonts",
  "css_prefix_text": "icon-",
  "css_use_suffix": false,
  "hinting": true,
  "units_per_em": 1000,
  "ascent": 850,
  "glyphs": [
    {
      "uid": "6f069318b47f3d613997ed53c130c14a",
      "css": "arr",
      "code": 59393,
      "src": "custom_icons",
      "selected": true,
      "svg": {
        "path": "M122 50.6C122 50.9 197.6 151.9 290 275.1 382.4 398.2 458 499.5 458 500 458 500.6 382.2 602.1 289.5 725.5L120.9 950 346.2 950 571.5 949.9 671 817.3C725.7 744.4 801.6 643.3 839.7 592.6 879.7 539.4 908.6 500.1 908.2 499.4 907.8 498.8 831.9 397.4 739.5 274.2L571.5 50.1 346.8 50C223.1 50 122 50.3 122 50.6Z",
        "width": 1000
      },
      "search": [
        "arr"
      ]
    },
    {
      "uid": "474656633f79ea2f1dad59ff63f6bf07",
      "css": "star",
      "code": 59399,
      "src": "fontawesome"
    },
    {
      "uid": "d17030afaecc1e1c22349b99f3c4992a",
      "css": "star-empty",
      "code": 59400,
      "src": "fontawesome"
    },
    {
      "uid": "84cf1fcc3fec556e7eaeb19679ca2dc9",
      "css": "star-half-alt",
      "code": 59401,
      "src": "fontawesome"
    },
    {
      "uid": "b6ef4443ecc502136135437837d9724b",
      "css": "mail",
      "code": 59396,
      "src": "elusive"
    },
    {
      "uid": "829c06a0a3b73b02a6224f4bbb73d99c",
      "css": "home",
      "code": 59392,
      "src": "elusive"
    },
    {
      "uid": "24a1eb628343fabd6f46a0a13456c045",
      "css": "print",
      "code": 59397,
      "src": "elusive"
    },
    {
      "uid": "c38baded20e83769843f48fbbfab5db3",
      "css": "right-hand",
      "code": 59398,
      "src": "elusive"
    },
    {
      "uid": "c99e966e3d22ec0b9d8678fd524e5512",
      "css": "facebook",
      "code": 59394,
      "src": "elusive"
    },
    {
      "uid": "a58fe946fe31826f0b19cb4dfaaf13d2",
      "css": "googleplus",
      "code": 59395,
      "src": "elusive"
    }
  ]
}